{
  "project_info": {
    "project_number": "951683809933",
    "project_id": "examen3flutter",
    "storage_bucket": "examen3flutter.appspot.com"
  },
  "client": [
    {
      "client_info": {
        "mobilesdk_app_id": "1:951683809933:android:3f9b9c4e2aca42b0e918c4",
        "android_client_info": {
          "package_name": "com.example.examen_3_flutter"
        }
      },
      "oauth_client": [
        {
          "client_id": "951683809933-cnqg9clofk8oo3onl1tjf7k8j11j7jcj.apps.googleusercontent.com",
          "client_type": 3
        }
      ],
      "api_key": [
        {
          "current_key": "AIzaSyDad6NnvcjO0lQSzH8pLEEpp1u5Um_1ZpI"
        }
      ],
      "services": {
        "appinvite_service": {
          "other_platform_oauth_client": [
            {
              "client_id": "951683809933-cnqg9clofk8oo3onl1tjf7k8j11j7jcj.apps.googleusercontent.com",
              "client_type": 3
            }
          ]
        }
      }
    }
  ],
  "configuration_version": "1"
}